module gitlab.com/matthewhughes/modinfo

go 1.21.0

require (
	github.com/stretchr/testify v1.9.0
	gitlab.com/matthewhughes/go-cov v0.4.0
	gitlab.com/matthewhughes/mages v0.2.0
	golang.org/x/mod v0.12.0
)

require (
	github.com/cpuguy83/go-md2man/v2 v2.0.2 // indirect
	github.com/davecgh/go-spew v1.1.1 // indirect
	github.com/magefile/mage v1.15.0 // indirect
	github.com/pmezard/go-difflib v1.0.0 // indirect
	github.com/russross/blackfriday/v2 v2.1.0 // indirect
	github.com/urfave/cli/v2 v2.27.1 // indirect
	github.com/xrash/smetrics v0.0.0-20201216005158-039620a65673 // indirect
	gitlab.com/matthewhughes/signalctx v0.1.0 // indirect
	golang.org/x/sys v0.11.0 // indirect
	golang.org/x/tools v0.12.0 // indirect
	gopkg.in/yaml.v3 v3.0.1 // indirect
)
